<?xml version="1.0" encoding="utf-8"?>
<!-- Generator: Adobe Illustrator 24.2.1, SVG Export Plug-In . SVG Version: 6.00 Build 0)  -->
<svg version="1.1" id="Layer_1" xmlns="http://www.w3.org/2000/svg" xmlns:xlink="http://www.w3.org/1999/xlink" x="0px" y="0px"
	 viewBox="0 0 512 512" style="enable-background:new 0 0 512 512;" xml:space="preserve">
<style type="text/css">
	.st0{fill:none;stroke:#95E8BB;stroke-width:18;stroke-miterlimit:10;}
	.st1{fill:#95E8BB;}
	.st2{fill:none;stroke:#FCDC7A;stroke-width:18;stroke-miterlimit:10;}
	.st3{fill:#FCDC7A;}
	.st4{fill:none;stroke:#82BFE9;stroke-width:18;stroke-miterlimit:10;}
	.st5{fill:#82BFE9;}
	.st6{fill:none;stroke:#EF75CC;stroke-width:14;stroke-miterlimit:10;}
	.st7{fill:none;stroke:#875BF4;stroke-width:16;stroke-miterlimit:10;}
</style>
<circle class="st4" cx="256" cy="256" r="176"/>
<g>
	<g>
		<g>
			<path class="st5" d="M326,303c-40.6,0-81.2,0-121.8,0c-5.7,0-11.5,0-17.2,0c-9.7,0-9.7,15,0,15c40.6,0,81.2,0,121.8,0
				c5.7,0,11.5,0,17.2,0C335.7,318,335.7,303,326,303L326,303z"/>
		</g>
	</g>
	<g>
		<g>
			<path class="st5" d="M326,194c-40.6,0-81.2,0-121.8,0c-5.7,0-11.5,0-17.2,0c-9.7,0-9.7,15,0,15c40.6,0,81.2,0,121.8,0
				c5.7,0,11.5,0,17.2,0C335.7,209,335.7,194,326,194L326,194z"/>
		</g>
	</g>
	<g>
		<g>
			<path class="st5" d="M291,192c0,6.7,0,13.3,0,20c0,9.7,15,9.7,15,0c0-6.7,0-13.3,0-20C306,182.3,291,182.3,291,192L291,192z"/>
		</g>
	</g>
	<g>
		<g>
			<path class="st5" d="M209,247c0,6.7,0,13.3,0,20c0,9.7,15,9.7,15,0c0-6.7,0-13.3,0-20C224,237.3,209,237.3,209,247L209,247z"/>
		</g>
	</g>
	<g>
		<g>
			<path class="st5" d="M249,301c0,6.7,0,13.3,0,20c0,9.7,15,9.7,15,0c0-6.7,0-13.3,0-20C264,291.3,249,291.3,249,301L249,301z"/>
		</g>
	</g>
	<g>
		<g>
			<path class="st5" d="M326,249.4c-40.6,0-81.2,0-121.8,0c-5.7,0-11.5,0-17.2,0c-9.7,0-9.7,15,0,15c40.6,0,81.2,0,121.8,0
				c5.7,0,11.5,0,17.2,0C335.7,264.4,335.7,249.4,326,249.4L326,249.4z"/>
		</g>
	</g>
</g>
</svg>
