<?xml version="1.0" encoding="utf-8"?>
<!-- Generator: Adobe Illustrator 24.2.1, SVG Export Plug-In . SVG Version: 6.00 Build 0)  -->
<svg version="1.1" id="Layer_1" xmlns="http://www.w3.org/2000/svg" xmlns:xlink="http://www.w3.org/1999/xlink" x="0px" y="0px"
	 viewBox="0 0 512 512" style="enable-background:new 0 0 512 512;" xml:space="preserve">
<style type="text/css">
	.st0{fill:none;stroke:#95E8BB;stroke-width:18;stroke-miterlimit:10;}
	.st1{fill:#95E8BB;}
	.st2{fill:none;stroke:#FCDC7A;stroke-width:18;stroke-miterlimit:10;}
	.st3{fill:#FCDC7A;}
	.st4{fill:none;stroke:#82BFE9;stroke-width:18;stroke-miterlimit:10;}
	.st5{fill:#82BFE9;}
	.st6{fill:none;stroke:#EF75CC;stroke-width:14;stroke-miterlimit:10;}
	.st7{fill:none;stroke:#875BF4;stroke-width:16;stroke-miterlimit:10;}
</style>
<path class="st6" d="M148,434H78c-6.6,0-12-5.4-12-12v-96c0-6.6,5.4-12,12-12h70c6.6,0,12,5.4,12,12v96C160,428.6,154.6,434,148,434
	z"/>
<path class="st6" d="M291,434h-70c-6.6,0-12-5.4-12-12V215c0-6.6,5.4-12,12-12h70c6.6,0,12,5.4,12,12v207
	C303,428.6,297.6,434,291,434z"/>
<path class="st6" d="M435,433h-70c-6.6,0-12-5.4-12-12V86c0-6.6,5.4-12,12-12h70c6.6,0,12,5.4,12,12v335
	C447,427.6,441.6,433,435,433z"/>
</svg>
