<?xml version="1.0" encoding="utf-8"?>
<!-- Generator: Adobe Illustrator 24.2.1, SVG Export Plug-In . SVG Version: 6.00 Build 0)  -->
<svg version="1.1" id="Layer_1" xmlns="http://www.w3.org/2000/svg" xmlns:xlink="http://www.w3.org/1999/xlink" x="0px" y="0px"
	 viewBox="0 0 512 512" style="enable-background:new 0 0 512 512;" xml:space="preserve">
<style type="text/css">
	.st0{fill:none;stroke:#95E8BB;stroke-width:18;stroke-miterlimit:10;}
	.st1{fill:#95E8BB;}
	.st2{fill:none;stroke:#FCDC7A;stroke-width:18;stroke-miterlimit:10;}
	.st3{fill:#FCDC7A;}
	.st4{fill:none;stroke:#82BFE9;stroke-width:18;stroke-miterlimit:10;}
	.st5{fill:#82BFE9;}
	.st6{fill:none;stroke:#EF75CC;stroke-width:14;stroke-miterlimit:10;}
	.st7{fill:none;stroke:#875BF4;stroke-width:16;stroke-miterlimit:10;}
</style>
<circle class="st2" cx="256.1" cy="182.2" r="110.2"/>
<g>
	<g>
		<path class="st3" d="M69.1,442c6-6.4,12.6-12.3,19.3-17.9c3.5-3,7.1-5.8,10.7-8.6c-2.2,1.7,0.9-0.7,1.4-1.1c1-0.8,2-1.5,3-2.2
			c2.2-1.6,4.4-3.2,6.7-4.8c9.8-6.9,20.1-13.3,30.6-19.1c53.3-29.3,115.6-41.4,176-24.4c48.2,13.6,90,43.2,125.2,78.1
			c9.2,9.1,23.3-5.1,14.1-14.1c-34-33.6-73.6-62.3-118.9-78.4c-33.8-12-70.4-16.3-106-11.8c-55.7,6.9-107.1,32.3-150.6,67.1
			c-8.9,7.2-17.9,14.7-25.7,23.1C46.2,437.3,60.3,451.5,69.1,442L69.1,442z"/>
	</g>
</g>
</svg>
