Package Report

-----------------------------------------------------------------------------
Document:
Name: Mobile App Feature.ai
Color Mode: RGB color
Color Profile: sRGB IEC61966-2.1
Ruler Units: pixels
Artboard Dimensions: 1024 px x 500 px
Show Images in Outline Mode: OFF
Highlight Substituted Fonts: OFF
Highlight Substituted Glyphs: OFF
Preserve Text Editability
Simulate Colored Paper: OFF

-----------------------------------------------------------------------------
Spot Color Objects:

-----------------------------------------------------------------------------
Missing Fonts:NONE

-----------------------------------------------------------------------------
Protected Fonts that were not packaged:NONE

-----------------------------------------------------------------------------
Fonts:
Helvetica Neue Medium (TrueType)
Helvetica Neue Light (TrueType)

-----------------------------------------------------------------------------
Embedded Fonts:
NONE

-----------------------------------------------------------------------------
Missing Links:
NONE

-----------------------------------------------------------------------------
Linked Images:
NONE