{
  "configVersion": 2,
  "packages": [
    {
      "name": "alphabet_list_scroll_view",
      "rootUri": "file:///D:/Programming/flutter/.pub-cache/hosted/pub.dartlang.org/alphabet_list_scroll_view-2.0.0",
      "packageUri": "lib/",
      "languageVersion": "2.12"
    },
    {
      "name": "animated_splash_screen",
      "rootUri": "file:///D:/Programming/flutter/.pub-cache/hosted/pub.dartlang.org/animated_splash_screen-1.1.0",
      "packageUri": "lib/",
      "languageVersion": "2.12"
    },
    {
      "name": "archive",
      "rootUri": "file:///D:/Programming/flutter/.pub-cache/hosted/pub.dartlang.org/archive-3.1.2",
      "packageUri": "lib/",
      "languageVersion": "2.12"
    },
    {
      "name": "async",
      "rootUri": "file:///D:/Programming/flutter/.pub-cache/hosted/pub.dartlang.org/async-2.6.1",
      "packageUri": "lib/",
      "languageVersion": "2.12"
    },
    {
      "name": "async_loader",
      "rootUri": "file:///D:/Programming/flutter/.pub-cache/hosted/pub.dartlang.org/async_loader-0.1.2",
      "packageUri": "lib/",
      "languageVersion": "1.20"
    },
    {
      "name": "auto_size_text",
      "rootUri": "file:///D:/Programming/flutter/.pub-cache/hosted/pub.dartlang.org/auto_size_text-2.1.0",
      "packageUri": "lib/",
      "languageVersion": "2.0"
    },
    {
      "name": "bloc",
      "rootUri": "file:///D:/Programming/flutter/.pub-cache/hosted/pub.dartlang.org/bloc-7.0.0",
      "packageUri": "lib/",
      "languageVersion": "2.12"
    },
    {
      "name": "boolean_selector",
      "rootUri": "file:///D:/Programming/flutter/.pub-cache/hosted/pub.dartlang.org/boolean_selector-2.1.0",
      "packageUri": "lib/",
      "languageVersion": "2.12"
    },
    {
      "name": "cached_network_image",
      "rootUri": "file:///D:/Programming/flutter/.pub-cache/hosted/pub.dartlang.org/cached_network_image-3.0.0",
      "packageUri": "lib/",
      "languageVersion": "2.12"
    },
    {
      "name": "carousel_slider",
      "rootUri": "file:///D:/Programming/flutter/.pub-cache/hosted/pub.dartlang.org/carousel_slider-4.0.0",
      "packageUri": "lib/",
      "languageVersion": "2.12"
    },
    {
      "name": "characters",
      "rootUri": "file:///D:/Programming/flutter/.pub-cache/hosted/pub.dartlang.org/characters-1.1.0",
      "packageUri": "lib/",
      "languageVersion": "2.12"
    },
    {
      "name": "charcode",
      "rootUri": "file:///D:/Programming/flutter/.pub-cache/hosted/pub.dartlang.org/charcode-1.2.0",
      "packageUri": "lib/",
      "languageVersion": "2.12"
    },
    {
      "name": "clock",
      "rootUri": "file:///D:/Programming/flutter/.pub-cache/hosted/pub.dartlang.org/clock-1.1.0",
      "packageUri": "lib/",
      "languageVersion": "2.12"
    },
    {
      "name": "cloud_firestore",
      "rootUri": "file:///D:/Programming/flutter/.pub-cache/hosted/pub.dartlang.org/cloud_firestore-2.2.2",
      "packageUri": "lib/",
      "languageVersion": "2.12"
    },
    {
      "name": "cloud_firestore_platform_interface",
      "rootUri": "file:///D:/Programming/flutter/.pub-cache/hosted/pub.dartlang.org/cloud_firestore_platform_interface-5.1.2",
      "packageUri": "lib/",
      "languageVersion": "2.12"
    },
    {
      "name": "cloud_firestore_web",
      "rootUri": "file:///D:/Programming/flutter/.pub-cache/hosted/pub.dartlang.org/cloud_firestore_web-2.1.2",
      "packageUri": "lib/",
      "languageVersion": "2.12"
    },
    {
      "name": "collection",
      "rootUri": "file:///D:/Programming/flutter/.pub-cache/hosted/pub.dartlang.org/collection-1.15.0",
      "packageUri": "lib/",
      "languageVersion": "2.12"
    },
    {
      "name": "convert",
      "rootUri": "file:///D:/Programming/flutter/.pub-cache/hosted/pub.dartlang.org/convert-3.0.0",
      "packageUri": "lib/",
      "languageVersion": "2.12"
    },
    {
      "name": "crypto",
      "rootUri": "file:///D:/Programming/flutter/.pub-cache/hosted/pub.dartlang.org/crypto-3.0.1",
      "packageUri": "lib/",
      "languageVersion": "2.12"
    },
    {
      "name": "csslib",
      "rootUri": "file:///D:/Programming/flutter/.pub-cache/hosted/pub.dartlang.org/csslib-0.17.0",
      "packageUri": "lib/",
      "languageVersion": "2.12"
    },
    {
      "name": "cupertino_icons",
      "rootUri": "file:///D:/Programming/flutter/.pub-cache/hosted/pub.dartlang.org/cupertino_icons-1.0.3",
      "packageUri": "lib/",
      "languageVersion": "2.12"
    },
    {
      "name": "date_format",
      "rootUri": "file:///D:/Programming/flutter/.pub-cache/hosted/pub.dartlang.org/date_format-2.0.2",
      "packageUri": "lib/",
      "languageVersion": "2.12"
    },
    {
      "name": "device_info",
      "rootUri": "file:///D:/Programming/flutter/.pub-cache/hosted/pub.dartlang.org/device_info-2.0.2",
      "packageUri": "lib/",
      "languageVersion": "2.12"
    },
    {
      "name": "device_info_platform_interface",
      "rootUri": "file:///D:/Programming/flutter/.pub-cache/hosted/pub.dartlang.org/device_info_platform_interface-2.0.1",
      "packageUri": "lib/",
      "languageVersion": "2.12"
    },
    {
      "name": "dio",
      "rootUri": "file:///D:/Programming/flutter/.pub-cache/hosted/pub.dartlang.org/dio-4.0.0",
      "packageUri": "lib/",
      "languageVersion": "2.12"
    },
    {
      "name": "equatable",
      "rootUri": "file:///D:/Programming/flutter/.pub-cache/hosted/pub.dartlang.org/equatable-2.0.3",
      "packageUri": "lib/",
      "languageVersion": "2.12"
    },
    {
      "name": "fake_async",
      "rootUri": "file:///D:/Programming/flutter/.pub-cache/hosted/pub.dartlang.org/fake_async-1.2.0",
      "packageUri": "lib/",
      "languageVersion": "2.12"
    },
    {
      "name": "fdottedline",
      "rootUri": "file:///D:/Programming/flutter/.pub-cache/hosted/pub.dartlang.org/fdottedline-1.0.1",
      "packageUri": "lib/",
      "languageVersion": "2.1"
    },
    {
      "name": "ffi",
      "rootUri": "file:///D:/Programming/flutter/.pub-cache/hosted/pub.dartlang.org/ffi-1.1.2",
      "packageUri": "lib/",
      "languageVersion": "2.12"
    },
    {
      "name": "file",
      "rootUri": "file:///D:/Programming/flutter/.pub-cache/hosted/pub.dartlang.org/file-6.1.2",
      "packageUri": "lib/",
      "languageVersion": "2.12"
    },
    {
      "name": "firebase",
      "rootUri": "file:///D:/Programming/flutter/.pub-cache/hosted/pub.dartlang.org/firebase-9.0.1",
      "packageUri": "lib/",
      "languageVersion": "2.12"
    },
    {
      "name": "firebase_analytics",
      "rootUri": "file:///D:/Programming/flutter/.pub-cache/hosted/pub.dartlang.org/firebase_analytics-8.1.2",
      "packageUri": "lib/",
      "languageVersion": "2.12"
    },
    {
      "name": "firebase_analytics_platform_interface",
      "rootUri": "file:///D:/Programming/flutter/.pub-cache/hosted/pub.dartlang.org/firebase_analytics_platform_interface-2.0.1",
      "packageUri": "lib/",
      "languageVersion": "2.12"
    },
    {
      "name": "firebase_analytics_web",
      "rootUri": "file:///D:/Programming/flutter/.pub-cache/hosted/pub.dartlang.org/firebase_analytics_web-0.3.0+1",
      "packageUri": "lib/",
      "languageVersion": "2.12"
    },
    {
      "name": "firebase_auth",
      "rootUri": "file:///D:/Programming/flutter/.pub-cache/hosted/pub.dartlang.org/firebase_auth-1.4.1",
      "packageUri": "lib/",
      "languageVersion": "2.12"
    },
    {
      "name": "firebase_auth_platform_interface",
      "rootUri": "file:///D:/Programming/flutter/.pub-cache/hosted/pub.dartlang.org/firebase_auth_platform_interface-4.3.1",
      "packageUri": "lib/",
      "languageVersion": "2.12"
    },
    {
      "name": "firebase_auth_web",
      "rootUri": "file:///D:/Programming/flutter/.pub-cache/hosted/pub.dartlang.org/firebase_auth_web-1.3.1",
      "packageUri": "lib/",
      "languageVersion": "2.12"
    },
    {
      "name": "firebase_core",
      "rootUri": "file:///D:/Programming/flutter/.pub-cache/hosted/pub.dartlang.org/firebase_core-1.3.0",
      "packageUri": "lib/",
      "languageVersion": "2.12"
    },
    {
      "name": "firebase_core_platform_interface",
      "rootUri": "file:///D:/Programming/flutter/.pub-cache/hosted/pub.dartlang.org/firebase_core_platform_interface-4.0.1",
      "packageUri": "lib/",
      "languageVersion": "2.12"
    },
    {
      "name": "firebase_core_web",
      "rootUri": "file:///D:/Programming/flutter/.pub-cache/hosted/pub.dartlang.org/firebase_core_web-1.1.0",
      "packageUri": "lib/",
      "languageVersion": "2.12"
    },
    {
      "name": "fl_chart",
      "rootUri": "file:///D:/Programming/flutter/.pub-cache/hosted/pub.dartlang.org/fl_chart-0.36.2",
      "packageUri": "lib/",
      "languageVersion": "2.12"
    },
    {
      "name": "flutter",
      "rootUri": "file:///D:/Programming/flutter/packages/flutter",
      "packageUri": "lib/",
      "languageVersion": "2.12"
    },
    {
      "name": "flutter_bloc",
      "rootUri": "file:///D:/Programming/flutter/.pub-cache/hosted/pub.dartlang.org/flutter_bloc-7.0.1",
      "packageUri": "lib/",
      "languageVersion": "2.12"
    },
    {
      "name": "flutter_blurhash",
      "rootUri": "file:///D:/Programming/flutter/.pub-cache/hosted/pub.dartlang.org/flutter_blurhash-0.6.0",
      "packageUri": "lib/",
      "languageVersion": "2.12"
    },
    {
      "name": "flutter_cache_manager",
      "rootUri": "file:///D:/Programming/flutter/.pub-cache/hosted/pub.dartlang.org/flutter_cache_manager-3.1.2",
      "packageUri": "lib/",
      "languageVersion": "2.12"
    },
    {
      "name": "flutter_cupertino_date_picker",
      "rootUri": "file:///D:/Programming/flutter/.pub-cache/hosted/pub.dartlang.org/flutter_cupertino_date_picker-1.0.26+2",
      "packageUri": "lib/",
      "languageVersion": "1.19"
    },
    {
      "name": "flutter_email_sender",
      "rootUri": "file:///D:/Programming/flutter/.pub-cache/hosted/pub.dartlang.org/flutter_email_sender-5.0.0",
      "packageUri": "lib/",
      "languageVersion": "2.12"
    },
    {
      "name": "flutter_facebook_login",
      "rootUri": "file:///D:/Programming/flutter/.pub-cache/hosted/pub.dartlang.org/flutter_facebook_login-3.0.0",
      "packageUri": "lib/",
      "languageVersion": "2.0"
    },
    {
      "name": "flutter_keyboard_visibility",
      "rootUri": "file:///D:/Programming/flutter/.pub-cache/hosted/pub.dartlang.org/flutter_keyboard_visibility-5.0.2",
      "packageUri": "lib/",
      "languageVersion": "2.12"
    },
    {
      "name": "flutter_keyboard_visibility_platform_interface",
      "rootUri": "file:///D:/Programming/flutter/.pub-cache/hosted/pub.dartlang.org/flutter_keyboard_visibility_platform_interface-2.0.0",
      "packageUri": "lib/",
      "languageVersion": "2.12"
    },
    {
      "name": "flutter_keyboard_visibility_web",
      "rootUri": "file:///D:/Programming/flutter/.pub-cache/hosted/pub.dartlang.org/flutter_keyboard_visibility_web-2.0.0",
      "packageUri": "lib/",
      "languageVersion": "2.12"
    },
    {
      "name": "flutter_mailer",
      "rootUri": "file:///D:/Programming/flutter/.pub-cache/hosted/pub.dartlang.org/flutter_mailer-2.0.0",
      "packageUri": "lib/",
      "languageVersion": "2.12"
    },
    {
      "name": "flutter_overlay_loader",
      "rootUri": "file:///D:/Programming/flutter/.pub-cache/hosted/pub.dartlang.org/flutter_overlay_loader-0.1.1",
      "packageUri": "lib/",
      "languageVersion": "2.12"
    },
    {
      "name": "flutter_plugin_android_lifecycle",
      "rootUri": "file:///D:/Programming/flutter/.pub-cache/hosted/pub.dartlang.org/flutter_plugin_android_lifecycle-2.0.2",
      "packageUri": "lib/",
      "languageVersion": "2.12"
    },
    {
      "name": "flutter_rating_bar",
      "rootUri": "file:///D:/Programming/flutter/.pub-cache/hosted/pub.dartlang.org/flutter_rating_bar-4.0.0",
      "packageUri": "lib/",
      "languageVersion": "2.12"
    },
    {
      "name": "flutter_slidable",
      "rootUri": "file:///D:/Programming/flutter/.pub-cache/hosted/pub.dartlang.org/flutter_slidable-0.6.0",
      "packageUri": "lib/",
      "languageVersion": "2.12"
    },
    {
      "name": "flutter_svg",
      "rootUri": "file:///D:/Programming/flutter/.pub-cache/hosted/pub.dartlang.org/flutter_svg-0.22.0",
      "packageUri": "lib/",
      "languageVersion": "2.12"
    },
    {
      "name": "flutter_test",
      "rootUri": "file:///D:/Programming/flutter/packages/flutter_test",
      "packageUri": "lib/",
      "languageVersion": "2.12"
    },
    {
      "name": "flutter_web_browser",
      "rootUri": "file:///D:/Programming/flutter/.pub-cache/hosted/pub.dartlang.org/flutter_web_browser-0.14.0",
      "packageUri": "lib/",
      "languageVersion": "2.12"
    },
    {
      "name": "flutter_web_plugins",
      "rootUri": "file:///D:/Programming/flutter/packages/flutter_web_plugins",
      "packageUri": "lib/",
      "languageVersion": "2.12"
    },
    {
      "name": "flutter_webview_plugin",
      "rootUri": "file:///D:/Programming/flutter/.pub-cache/hosted/pub.dartlang.org/flutter_webview_plugin-0.4.0",
      "packageUri": "lib/",
      "languageVersion": "2.12"
    },
    {
      "name": "font_awesome_flutter",
      "rootUri": "file:///D:/Programming/flutter/.pub-cache/hosted/pub.dartlang.org/font_awesome_flutter-9.1.0",
      "packageUri": "lib/",
      "languageVersion": "2.12"
    },
    {
      "name": "formz",
      "rootUri": "file:///D:/Programming/flutter/.pub-cache/hosted/pub.dartlang.org/formz-0.4.0",
      "packageUri": "lib/",
      "languageVersion": "2.12"
    },
    {
      "name": "google_fonts",
      "rootUri": "file:///D:/Programming/flutter/.pub-cache/hosted/pub.dartlang.org/google_fonts-2.1.0",
      "packageUri": "lib/",
      "languageVersion": "2.12"
    },
    {
      "name": "google_maps_flutter",
      "rootUri": "file:///D:/Programming/flutter/.pub-cache/hosted/pub.dartlang.org/google_maps_flutter-2.0.6",
      "packageUri": "lib/",
      "languageVersion": "2.12"
    },
    {
      "name": "google_maps_flutter_platform_interface",
      "rootUri": "file:///D:/Programming/flutter/.pub-cache/hosted/pub.dartlang.org/google_maps_flutter_platform_interface-2.1.0",
      "packageUri": "lib/",
      "languageVersion": "2.12"
    },
    {
      "name": "google_sign_in",
      "rootUri": "file:///D:/Programming/flutter/.pub-cache/hosted/pub.dartlang.org/google_sign_in-5.0.4",
      "packageUri": "lib/",
      "languageVersion": "2.12"
    },
    {
      "name": "google_sign_in_platform_interface",
      "rootUri": "file:///D:/Programming/flutter/.pub-cache/hosted/pub.dartlang.org/google_sign_in_platform_interface-2.0.1",
      "packageUri": "lib/",
      "languageVersion": "2.12"
    },
    {
      "name": "google_sign_in_web",
      "rootUri": "file:///D:/Programming/flutter/.pub-cache/hosted/pub.dartlang.org/google_sign_in_web-0.10.0",
      "packageUri": "lib/",
      "languageVersion": "2.12"
    },
    {
      "name": "html",
      "rootUri": "file:///D:/Programming/flutter/.pub-cache/hosted/pub.dartlang.org/html-0.15.0",
      "packageUri": "lib/",
      "languageVersion": "2.12"
    },
    {
      "name": "http",
      "rootUri": "file:///D:/Programming/flutter/.pub-cache/hosted/pub.dartlang.org/http-0.13.3",
      "packageUri": "lib/",
      "languageVersion": "2.12"
    },
    {
      "name": "http_auth",
      "rootUri": "file:///D:/Programming/flutter/.pub-cache/hosted/pub.dartlang.org/http_auth-1.0.0",
      "packageUri": "lib/",
      "languageVersion": "2.12"
    },
    {
      "name": "http_parser",
      "rootUri": "file:///D:/Programming/flutter/.pub-cache/hosted/pub.dartlang.org/http_parser-4.0.0",
      "packageUri": "lib/",
      "languageVersion": "2.12"
    },
    {
      "name": "image",
      "rootUri": "file:///D:/Programming/flutter/.pub-cache/hosted/pub.dartlang.org/image-3.0.2",
      "packageUri": "lib/",
      "languageVersion": "2.12"
    },
    {
      "name": "image_cropper",
      "rootUri": "file:///D:/Programming/flutter/.pub-cache/hosted/pub.dartlang.org/image_cropper-1.4.1",
      "packageUri": "lib/",
      "languageVersion": "2.12"
    },
    {
      "name": "image_picker",
      "rootUri": "file:///D:/Programming/flutter/.pub-cache/hosted/pub.dartlang.org/image_picker-0.8.0+3",
      "packageUri": "lib/",
      "languageVersion": "2.12"
    },
    {
      "name": "image_picker_for_web",
      "rootUri": "file:///D:/Programming/flutter/.pub-cache/hosted/pub.dartlang.org/image_picker_for_web-2.0.0",
      "packageUri": "lib/",
      "languageVersion": "2.12"
    },
    {
      "name": "image_picker_platform_interface",
      "rootUri": "file:///D:/Programming/flutter/.pub-cache/hosted/pub.dartlang.org/image_picker_platform_interface-2.1.0",
      "packageUri": "lib/",
      "languageVersion": "2.12"
    },
    {
      "name": "intl",
      "rootUri": "file:///D:/Programming/flutter/.pub-cache/hosted/pub.dartlang.org/intl-0.17.0",
      "packageUri": "lib/",
      "languageVersion": "2.12"
    },
    {
      "name": "js",
      "rootUri": "file:///D:/Programming/flutter/.pub-cache/hosted/pub.dartlang.org/js-0.6.3",
      "packageUri": "lib/",
      "languageVersion": "2.12"
    },
    {
      "name": "json_annotation",
      "rootUri": "file:///D:/Programming/flutter/.pub-cache/hosted/pub.dartlang.org/json_annotation-4.0.1",
      "packageUri": "lib/",
      "languageVersion": "2.12"
    },
    {
      "name": "keyboard_visibility",
      "rootUri": "file:///D:/Programming/flutter/.pub-cache/hosted/pub.dartlang.org/keyboard_visibility-0.5.6",
      "packageUri": "lib/",
      "languageVersion": "2.0"
    },
    {
      "name": "lists",
      "rootUri": "file:///D:/Programming/flutter/.pub-cache/hosted/pub.dartlang.org/lists-1.0.0",
      "packageUri": "lib/",
      "languageVersion": "2.12"
    },
    {
      "name": "location_permissions",
      "rootUri": "file:///D:/Programming/flutter/.pub-cache/hosted/pub.dartlang.org/location_permissions-4.0.0",
      "packageUri": "lib/",
      "languageVersion": "2.12"
    },
    {
      "name": "logging",
      "rootUri": "file:///D:/Programming/flutter/.pub-cache/hosted/pub.dartlang.org/logging-1.0.1",
      "packageUri": "lib/",
      "languageVersion": "2.12"
    },
    {
      "name": "matcher",
      "rootUri": "file:///D:/Programming/flutter/.pub-cache/hosted/pub.dartlang.org/matcher-0.12.10",
      "packageUri": "lib/",
      "languageVersion": "2.12"
    },
    {
      "name": "meta",
      "rootUri": "file:///D:/Programming/flutter/.pub-cache/hosted/pub.dartlang.org/meta-1.3.0",
      "packageUri": "lib/",
      "languageVersion": "2.12"
    },
    {
      "name": "nested",
      "rootUri": "file:///D:/Programming/flutter/.pub-cache/hosted/pub.dartlang.org/nested-1.0.0",
      "packageUri": "lib/",
      "languageVersion": "2.12"
    },
    {
      "name": "octo_image",
      "rootUri": "file:///D:/Programming/flutter/.pub-cache/hosted/pub.dartlang.org/octo_image-1.0.0+1",
      "packageUri": "lib/",
      "languageVersion": "2.12"
    },
    {
      "name": "outline_material_icons",
      "rootUri": "file:///D:/Programming/flutter/.pub-cache/hosted/pub.dartlang.org/outline_material_icons-0.1.1",
      "packageUri": "lib/",
      "languageVersion": "2.0"
    },
    {
      "name": "page_transition",
      "rootUri": "file:///D:/Programming/flutter/.pub-cache/hosted/pub.dartlang.org/page_transition-2.0.1-nullsafety.0",
      "packageUri": "lib/",
      "languageVersion": "2.12"
    },
    {
      "name": "path",
      "rootUri": "file:///D:/Programming/flutter/.pub-cache/hosted/pub.dartlang.org/path-1.8.0",
      "packageUri": "lib/",
      "languageVersion": "2.12"
    },
    {
      "name": "path_drawing",
      "rootUri": "file:///D:/Programming/flutter/.pub-cache/hosted/pub.dartlang.org/path_drawing-0.5.1",
      "packageUri": "lib/",
      "languageVersion": "2.12"
    },
    {
      "name": "path_parsing",
      "rootUri": "file:///D:/Programming/flutter/.pub-cache/hosted/pub.dartlang.org/path_parsing-0.2.1",
      "packageUri": "lib/",
      "languageVersion": "2.12"
    },
    {
      "name": "path_provider",
      "rootUri": "file:///D:/Programming/flutter/.pub-cache/hosted/pub.dartlang.org/path_provider-2.0.2",
      "packageUri": "lib/",
      "languageVersion": "2.12"
    },
    {
      "name": "path_provider_linux",
      "rootUri": "file:///D:/Programming/flutter/.pub-cache/hosted/pub.dartlang.org/path_provider_linux-2.0.0",
      "packageUri": "lib/",
      "languageVersion": "2.12"
    },
    {
      "name": "path_provider_macos",
      "rootUri": "file:///D:/Programming/flutter/.pub-cache/hosted/pub.dartlang.org/path_provider_macos-2.0.0",
      "packageUri": "lib/",
      "languageVersion": "2.12"
    },
    {
      "name": "path_provider_platform_interface",
      "rootUri": "file:///D:/Programming/flutter/.pub-cache/hosted/pub.dartlang.org/path_provider_platform_interface-2.0.1",
      "packageUri": "lib/",
      "languageVersion": "2.12"
    },
    {
      "name": "path_provider_windows",
      "rootUri": "file:///D:/Programming/flutter/.pub-cache/hosted/pub.dartlang.org/path_provider_windows-2.0.1",
      "packageUri": "lib/",
      "languageVersion": "2.12"
    },
    {
      "name": "pedantic",
      "rootUri": "file:///D:/Programming/flutter/.pub-cache/hosted/pub.dartlang.org/pedantic-1.11.1",
      "packageUri": "lib/",
      "languageVersion": "2.12"
    },
    {
      "name": "percent_indicator",
      "rootUri": "file:///D:/Programming/flutter/.pub-cache/hosted/pub.dartlang.org/percent_indicator-3.0.1",
      "packageUri": "lib/",
      "languageVersion": "2.12"
    },
    {
      "name": "permission",
      "rootUri": "file:///D:/Programming/flutter/.pub-cache/hosted/pub.dartlang.org/permission-0.1.7",
      "packageUri": "lib/",
      "languageVersion": "2.1"
    },
    {
      "name": "permission_handler",
      "rootUri": "file:///D:/Programming/flutter/.pub-cache/hosted/pub.dartlang.org/permission_handler-8.1.1",
      "packageUri": "lib/",
      "languageVersion": "2.12"
    },
    {
      "name": "permission_handler_platform_interface",
      "rootUri": "file:///D:/Programming/flutter/.pub-cache/hosted/pub.dartlang.org/permission_handler_platform_interface-3.6.0",
      "packageUri": "lib/",
      "languageVersion": "2.12"
    },
    {
      "name": "petitparser",
      "rootUri": "file:///D:/Programming/flutter/.pub-cache/hosted/pub.dartlang.org/petitparser-4.1.0",
      "packageUri": "lib/",
      "languageVersion": "2.12"
    },
    {
      "name": "picker",
      "rootUri": "file:///D:/Programming/flutter/.pub-cache/hosted/pub.dartlang.org/picker-1.0.6",
      "packageUri": "lib/",
      "languageVersion": "2.0"
    },
    {
      "name": "platform",
      "rootUri": "file:///D:/Programming/flutter/.pub-cache/hosted/pub.dartlang.org/platform-3.0.0",
      "packageUri": "lib/",
      "languageVersion": "2.12"
    },
    {
      "name": "plugin_platform_interface",
      "rootUri": "file:///D:/Programming/flutter/.pub-cache/hosted/pub.dartlang.org/plugin_platform_interface-2.0.0",
      "packageUri": "lib/",
      "languageVersion": "2.12"
    },
    {
      "name": "process",
      "rootUri": "file:///D:/Programming/flutter/.pub-cache/hosted/pub.dartlang.org/process-4.2.1",
      "packageUri": "lib/",
      "languageVersion": "2.12"
    },
    {
      "name": "provider",
      "rootUri": "file:///D:/Programming/flutter/.pub-cache/hosted/pub.dartlang.org/provider-5.0.0",
      "packageUri": "lib/",
      "languageVersion": "2.12"
    },
    {
      "name": "quiver",
      "rootUri": "file:///D:/Programming/flutter/.pub-cache/hosted/pub.dartlang.org/quiver-3.0.1",
      "packageUri": "lib/",
      "languageVersion": "2.12"
    },
    {
      "name": "rect_getter",
      "rootUri": "file:///D:/Programming/flutter/.pub-cache/hosted/pub.dartlang.org/rect_getter-1.0.0",
      "packageUri": "lib/",
      "languageVersion": "2.12"
    },
    {
      "name": "rxdart",
      "rootUri": "file:///D:/Programming/flutter/.pub-cache/hosted/pub.dartlang.org/rxdart-0.26.0",
      "packageUri": "lib/",
      "languageVersion": "2.12"
    },
    {
      "name": "shared_preferences",
      "rootUri": "file:///D:/Programming/flutter/.pub-cache/hosted/pub.dartlang.org/shared_preferences-2.0.6",
      "packageUri": "lib/",
      "languageVersion": "2.12"
    },
    {
      "name": "shared_preferences_linux",
      "rootUri": "file:///D:/Programming/flutter/.pub-cache/hosted/pub.dartlang.org/shared_preferences_linux-2.0.0",
      "packageUri": "lib/",
      "languageVersion": "2.12"
    },
    {
      "name": "shared_preferences_macos",
      "rootUri": "file:///D:/Programming/flutter/.pub-cache/hosted/pub.dartlang.org/shared_preferences_macos-2.0.0",
      "packageUri": "lib/",
      "languageVersion": "2.12"
    },
    {
      "name": "shared_preferences_platform_interface",
      "rootUri": "file:///D:/Programming/flutter/.pub-cache/hosted/pub.dartlang.org/shared_preferences_platform_interface-2.0.0",
      "packageUri": "lib/",
      "languageVersion": "2.12"
    },
    {
      "name": "shared_preferences_web",
      "rootUri": "file:///D:/Programming/flutter/.pub-cache/hosted/pub.dartlang.org/shared_preferences_web-2.0.0",
      "packageUri": "lib/",
      "languageVersion": "2.12"
    },
    {
      "name": "shared_preferences_windows",
      "rootUri": "file:///D:/Programming/flutter/.pub-cache/hosted/pub.dartlang.org/shared_preferences_windows-2.0.0",
      "packageUri": "lib/",
      "languageVersion": "2.12"
    },
    {
      "name": "simple_gesture_detector",
      "rootUri": "file:///D:/Programming/flutter/.pub-cache/hosted/pub.dartlang.org/simple_gesture_detector-0.2.0",
      "packageUri": "lib/",
      "languageVersion": "2.12"
    },
    {
      "name": "sky_engine",
      "rootUri": "file:///D:/Programming/flutter/bin/cache/pkg/sky_engine",
      "packageUri": "lib/",
      "languageVersion": "2.12"
    },
    {
      "name": "social_share",
      "rootUri": "file:///D:/Programming/flutter/.pub-cache/hosted/pub.dartlang.org/social_share-2.1.1",
      "packageUri": "lib/",
      "languageVersion": "2.12"
    },
    {
      "name": "source_span",
      "rootUri": "file:///D:/Programming/flutter/.pub-cache/hosted/pub.dartlang.org/source_span-1.8.1",
      "packageUri": "lib/",
      "languageVersion": "2.12"
    },
    {
      "name": "sqflite",
      "rootUri": "file:///D:/Programming/flutter/.pub-cache/hosted/pub.dartlang.org/sqflite-2.0.0+3",
      "packageUri": "lib/",
      "languageVersion": "2.12"
    },
    {
      "name": "sqflite_common",
      "rootUri": "file:///D:/Programming/flutter/.pub-cache/hosted/pub.dartlang.org/sqflite_common-2.0.0+2",
      "packageUri": "lib/",
      "languageVersion": "2.12"
    },
    {
      "name": "stack_trace",
      "rootUri": "file:///D:/Programming/flutter/.pub-cache/hosted/pub.dartlang.org/stack_trace-1.10.0",
      "packageUri": "lib/",
      "languageVersion": "2.12"
    },
    {
      "name": "stream_channel",
      "rootUri": "file:///D:/Programming/flutter/.pub-cache/hosted/pub.dartlang.org/stream_channel-2.1.0",
      "packageUri": "lib/",
      "languageVersion": "2.12"
    },
    {
      "name": "stream_transform",
      "rootUri": "file:///D:/Programming/flutter/.pub-cache/hosted/pub.dartlang.org/stream_transform-2.0.0",
      "packageUri": "lib/",
      "languageVersion": "2.12"
    },
    {
      "name": "string_scanner",
      "rootUri": "file:///D:/Programming/flutter/.pub-cache/hosted/pub.dartlang.org/string_scanner-1.1.0",
      "packageUri": "lib/",
      "languageVersion": "2.12"
    },
    {
      "name": "strings",
      "rootUri": "file:///D:/Programming/flutter/.pub-cache/hosted/pub.dartlang.org/strings-0.2.1",
      "packageUri": "lib/",
      "languageVersion": "2.12"
    },
    {
      "name": "synchronized",
      "rootUri": "file:///D:/Programming/flutter/.pub-cache/hosted/pub.dartlang.org/synchronized-3.0.0",
      "packageUri": "lib/",
      "languageVersion": "2.12"
    },
    {
      "name": "table_calendar",
      "rootUri": "file:///D:/Programming/flutter/.pub-cache/hosted/pub.dartlang.org/table_calendar-3.0.0",
      "packageUri": "lib/",
      "languageVersion": "2.12"
    },
    {
      "name": "term_glyph",
      "rootUri": "file:///D:/Programming/flutter/.pub-cache/hosted/pub.dartlang.org/term_glyph-1.2.0",
      "packageUri": "lib/",
      "languageVersion": "2.12"
    },
    {
      "name": "test_api",
      "rootUri": "file:///D:/Programming/flutter/.pub-cache/hosted/pub.dartlang.org/test_api-0.3.0",
      "packageUri": "lib/",
      "languageVersion": "2.12"
    },
    {
      "name": "timeline_tile",
      "rootUri": "file:///D:/Programming/flutter/.pub-cache/hosted/pub.dartlang.org/timeline_tile-2.0.0",
      "packageUri": "lib/",
      "languageVersion": "2.12"
    },
    {
      "name": "typed_data",
      "rootUri": "file:///D:/Programming/flutter/.pub-cache/hosted/pub.dartlang.org/typed_data-1.3.0",
      "packageUri": "lib/",
      "languageVersion": "2.12"
    },
    {
      "name": "uni_links",
      "rootUri": "file:///D:/Programming/flutter/.pub-cache/hosted/pub.dartlang.org/uni_links-0.5.1",
      "packageUri": "lib/",
      "languageVersion": "2.12"
    },
    {
      "name": "uni_links_platform_interface",
      "rootUri": "file:///D:/Programming/flutter/.pub-cache/hosted/pub.dartlang.org/uni_links_platform_interface-1.0.0",
      "packageUri": "lib/",
      "languageVersion": "2.12"
    },
    {
      "name": "uni_links_web",
      "rootUri": "file:///D:/Programming/flutter/.pub-cache/hosted/pub.dartlang.org/uni_links_web-0.1.0",
      "packageUri": "lib/",
      "languageVersion": "2.12"
    },
    {
      "name": "unicode",
      "rootUri": "file:///D:/Programming/flutter/.pub-cache/hosted/pub.dartlang.org/unicode-0.3.0",
      "packageUri": "lib/",
      "languageVersion": "2.12"
    },
    {
      "name": "url_launcher",
      "rootUri": "file:///D:/Programming/flutter/.pub-cache/hosted/pub.dartlang.org/url_launcher-6.0.6",
      "packageUri": "lib/",
      "languageVersion": "2.12"
    },
    {
      "name": "url_launcher_linux",
      "rootUri": "file:///D:/Programming/flutter/.pub-cache/hosted/pub.dartlang.org/url_launcher_linux-2.0.0",
      "packageUri": "lib/",
      "languageVersion": "2.12"
    },
    {
      "name": "url_launcher_macos",
      "rootUri": "file:///D:/Programming/flutter/.pub-cache/hosted/pub.dartlang.org/url_launcher_macos-2.0.0",
      "packageUri": "lib/",
      "languageVersion": "2.12"
    },
    {
      "name": "url_launcher_platform_interface",
      "rootUri": "file:///D:/Programming/flutter/.pub-cache/hosted/pub.dartlang.org/url_launcher_platform_interface-2.0.3",
      "packageUri": "lib/",
      "languageVersion": "2.12"
    },
    {
      "name": "url_launcher_web",
      "rootUri": "file:///D:/Programming/flutter/.pub-cache/hosted/pub.dartlang.org/url_launcher_web-2.0.1",
      "packageUri": "lib/",
      "languageVersion": "2.12"
    },
    {
      "name": "url_launcher_windows",
      "rootUri": "file:///D:/Programming/flutter/.pub-cache/hosted/pub.dartlang.org/url_launcher_windows-2.0.0",
      "packageUri": "lib/",
      "languageVersion": "2.12"
    },
    {
      "name": "uuid",
      "rootUri": "file:///D:/Programming/flutter/.pub-cache/hosted/pub.dartlang.org/uuid-3.0.4",
      "packageUri": "lib/",
      "languageVersion": "2.12"
    },
    {
      "name": "vector_math",
      "rootUri": "file:///D:/Programming/flutter/.pub-cache/hosted/pub.dartlang.org/vector_math-2.1.0",
      "packageUri": "lib/",
      "languageVersion": "2.12"
    },
    {
      "name": "vibration",
      "rootUri": "file:///D:/Programming/flutter/.pub-cache/hosted/pub.dartlang.org/vibration-1.7.4-nullsafety.0",
      "packageUri": "lib/",
      "languageVersion": "2.12"
    },
    {
      "name": "vibration_web",
      "rootUri": "file:///D:/Programming/flutter/.pub-cache/hosted/pub.dartlang.org/vibration_web-1.6.3-nullsafety.0",
      "packageUri": "lib/",
      "languageVersion": "2.12"
    },
    {
      "name": "webview_flutter",
      "rootUri": "file:///D:/Programming/flutter/.pub-cache/hosted/pub.dartlang.org/webview_flutter-2.0.8",
      "packageUri": "lib/",
      "languageVersion": "2.12"
    },
    {
      "name": "win32",
      "rootUri": "file:///D:/Programming/flutter/.pub-cache/hosted/pub.dartlang.org/win32-2.2.2",
      "packageUri": "lib/",
      "languageVersion": "2.13"
    },
    {
      "name": "xdg_directories",
      "rootUri": "file:///D:/Programming/flutter/.pub-cache/hosted/pub.dartlang.org/xdg_directories-0.2.0",
      "packageUri": "lib/",
      "languageVersion": "2.12"
    },
    {
      "name": "xml",
      "rootUri": "file:///D:/Programming/flutter/.pub-cache/hosted/pub.dartlang.org/xml-5.1.2",
      "packageUri": "lib/",
      "languageVersion": "2.12"
    },
    {
      "name": "thoughtseekers",
      "rootUri": "../",
      "packageUri": "lib/",
      "languageVersion": "2.7"
    }
  ],
  "generated": "2021-06-26T14:18:57.318919Z",
  "generator": "pub",
  "generatorVersion": "2.13.3"
}
